{
    "#default": {
        "#class" : "\\proto\\Model",
        "scenarios": {
            "default": {
            },
            "list": {
                "id": "default"
            },
            "view": {
                "id": "default"
            },
            "search": {
            }
        },
        "box":{
            "#class" : "\\proto\\Box",
            "limit": 20
        }
    },
    "registry" : {"#parent":"drycart/main/#registry"},
    "user":{"#parent":"drycart/main/#user"},
    "#basicPage": {"#parent": "drycore/util/web/#basicPage"},
    "#contentPage": {"#parent": "drycore/util/web/#contentPage"},
    "#defaultPage": {"#parent": "drycart/main/#defaultPage"},
    "#sitePage": {"#parent": "drycart/main/#sitePage"},
    "singleton":{"#parent": "drycart/main/#singleton"},
    "adminPage":{"#parent": "drycart/main/#adminPage"}
}