{
    "#default": {},
    "main": {
        "#class": "\\drycore\\core\\Main",
        "#context": {
            "cmd": {
                "errorController": "cmdError"
            }
        }
    },
    "route": {
        "#context": {
            "web": {
                "#class": "\\drycore\\util\\web\\RoutePage",
                "defaultRoute":"index:default"
            },
            "install": {
                "#class": "\\drycore\\core\\route\\Route",
                "defaultRoute":"install:default"
            },
            "cmd": {
                "#class": "\\drycore\\core\\route\\CmdRoute"
            }
        }
    },
    "requiredServices" : {
        "#class": "\\drycore\\sys\\service\\RequiredServices",
        "#context": {
            "web": {
                "services" : ["dbsession","xsrf","locale","clientHistory"]
            },
            "install": {
                "services" : ["xsrf","locale"]
            },
            "cmd": {
                "services" : ["locale"]
            }
        }
    },
    "log": {"#class": "\\drycore\\core\\Log"},
    "controllerFactory": {"#class": "\\drycore\\core\\controller\\ControllerFactory"},
    "modelFactory": {"#class": "\\drycore\\sys\\minimalModel\\ModelFactory"},
    "boxFactory": {"#class": "\\drycore\\sys\\box\\BoxFactory"},
    "ruleFactory": {"#class": "\\drycore\\sys\\rule\\RuleFactory"},
    "viewFactory": {"#class": "\\drycore\\core\\view\\ViewFactory"},
    "user": {"#class": "\\drycore\\util\\user\\User"},
    "get": {"#class": "\\drycore\\core\\http\\Get"},
    "http": {"#class": "\\drycore\\core\\http\\Http"},
    "post": {"#class": "\\drycore\\core\\http\\Post"},
    "xsrf": {"#class": "\\drycore\\core\\http\\Xsrf"},
    "cookie": {"#class": "\\drycore\\core\\http\\Cookie"},
    "session": {"#class": "\\drycore\\core\\http\\Session"},
    "db": {
        "#class": "\\drycore\\core\\dao\\Db",
        "#modelConfig": "db@registry"
    },
    "lang": {
        "#class": "\\drycore\\sys\\lang\\Lang",
        "defaultLang": "rus"
    },
    "locale": {
        "#class": "\\drycore\\util\\Locale",
        "lang": "rus",
        "shortLang":"ru",
        "timeZone": "Europe/Kiev",
        "dateFormat": "d.m.Y",
        "dateFormatPretty": "dd.mm.yyyy",
        "timeFormat": "G:i",
        "dateTimeFormat": "d.m.Y - G:i"
    },
    "email": {
        "#class": "\\drycore\\core\\email\\Email",
        "#modelConfig": "email@registry"
    },
    "import": {"#class": "\\drycore\\util\\Import"},
    "dbsession": {"#class": "\\drycore\\util\\Dbsession"},
    "mybot": {"#class": "\\drycore\\util\\Mybot"},
    "money": {
        "#class": "\\drycore\\util\\Money",
        "#modelConfig": "money@registry"
    },
    "alert": {"#class": "\\drycore\\util\\widget\\Alert"},
    "clientHistory": {
        "#class": "\\drycore\\util\\history\\ClientHistory"        
    }
}